%YAML 1.1
%TAG !u! tag:unity3d.com,2011:
--- !u!114 &11400000
MonoBehaviour:
  m_ObjectHideFlags: 0
  m_PrefabParentObject: {fileID: 0}
  m_PrefabInternal: {fileID: 0}
  m_GameObject: {fileID: 0}
  m_Enabled: 1
  m_EditorHideFlags: 0
  m_Script: {fileID: 11500000, guid: f2ca645c475fb4e0eaefe316bbbf4235, type: 3}
  m_Name: Hex-World 1
  m_EditorClassIdentifier: 
  name: Hex-World
  capitalTransform: {fileID: 4911332651664364, guid: 7d31936e55c60427d8bdbb95dc3b0ab8,
    type: 2}
  religion: 2
  government: 1
  econemy: 1
  gDP: 3.7
  militaryStrength: 4
  PopulationPerCapita: 3.9
  tech: 2
  color: {r: 0.99145174, g: 0, b: 1, a: 1}
  flag: {fileID: 21300000, guid: a8c566ee2ace14eea9401cc6cb329499, type: 3}
