%YAML 1.1
%TAG !u! tag:unity3d.com,2011:
--- !u!114 &11400000
MonoBehaviour:
  m_ObjectHideFlags: 0
  m_PrefabParentObject: {fileID: 0}
  m_PrefabInternal: {fileID: 0}
  m_GameObject: {fileID: 0}
  m_Enabled: 1
  m_EditorHideFlags: 0
  m_Script: {fileID: 11500000, guid: f2ca645c475fb4e0eaefe316bbbf4235, type: 3}
  m_Name: Plusegon
  m_EditorClassIdentifier: 
  name: Plusegon
  capitalTransform: {fileID: 4940066608733662, guid: d8703043c40574f9fa821d5da059dc60,
    type: 2}
  religion: 2
  government: 0
  econemy: 0
  gDP: 3
  militaryStrength: 1
  PopulationPerCapita: 3
  tech: 2
  color: {r: 0.4716981, g: 0.47113895, b: 0.2202741, a: 1}
  flag: {fileID: 21300000, guid: ef95c984ee4824cae973a4b98f3ec460, type: 3}
