%YAML 1.1
%TAG !u! tag:unity3d.com,2011:
--- !u!114 &11400000
MonoBehaviour:
  m_ObjectHideFlags: 0
  m_PrefabParentObject: {fileID: 0}
  m_PrefabInternal: {fileID: 0}
  m_GameObject: {fileID: 0}
  m_Enabled: 1
  m_EditorHideFlags: 0
  m_Script: {fileID: 11500000, guid: f2ca645c475fb4e0eaefe316bbbf4235, type: 3}
  m_Name: Rectopia
  m_EditorClassIdentifier: 
  name: Rectopia
  capitalTransform: {fileID: 4179439910557472, guid: 73184bb4deba94d80bb3d267be568afb,
    type: 2}
  religion: 1
  government: 2
  econemy: 0
  gDP: 4
  militaryStrength: 4
  PopulationPerCapita: 3
  tech: 5
  color: {r: 0.2920261, g: 0.011764706, b: 0.7529412, a: 1}
  flag: {fileID: 21300000, guid: 071e6fd8841e9407a9bda7472ca5b606, type: 3}
