%YAML 1.1
%TAG !u! tag:unity3d.com,2011:
--- !u!114 &11400000
MonoBehaviour:
  m_ObjectHideFlags: 0
  m_PrefabParentObject: {fileID: 0}
  m_PrefabInternal: {fileID: 0}
  m_GameObject: {fileID: 0}
  m_Enabled: 1
  m_EditorHideFlags: 0
  m_Script: {fileID: 11500000, guid: f2ca645c475fb4e0eaefe316bbbf4235, type: 3}
  m_Name: Squarica
  m_EditorClassIdentifier: 
  name: Squarica
  capitalTransform: {fileID: 4813323770311986, guid: b247c06e8b2b04a68be04847ade3ee17,
    type: 2}
  religion: 1
  government: 1
  econemy: 1
  gDP: 4.8
  militaryStrength: 5
  PopulationPerCapita: 5
  tech: 5
  color: {r: 1, g: 0, b: 0, a: 1}
  flag: {fileID: 21300000, guid: 4c3a60cd132cd42ac943fabd6c079d71, type: 3}
